<svg width="23" height="16" viewBox="0 0 23 16" fill="none" xmlns="http://www.w3.org/2000/svg">
<path fill-rule="evenodd" clip-rule="evenodd" d="M20.635 0.731583C21.5968 0.856885 22.5159 1.79219 22.6329 2.7676C23.0469 6.34232 23.0469 9.80872 22.6329 13.3823C22.5159 14.3577 21.5968 15.2941 20.635 15.4183C14.7706 16.147 8.83994 16.147 2.97721 15.4183C2.01461 15.2939 1.09546 14.3577 0.978508 13.3823C0.564456 9.80844 0.564456 6.34232 0.978508 2.7676C1.09546 1.79219 2.01461 0.856606 2.97721 0.731583C8.83994 0.00288381 14.7703 0.00288381 20.635 0.731583ZM9.94928 4.36283V11.7882L15.5182 8.07566L9.94928 4.36283Z" fill="white"/>
</svg>
